{
  "project_info": {
    "project_number": "390469789181",
    "project_id": "fastmedishop-b9cde",
    "storage_bucket": "fastmedishop-b9cde.appspot.com"
  },
  "client": [
    {
      "client_info": {
        "mobilesdk_app_id": "1:390469789181:android:347f30286374288ecb6594",
        "android_client_info": {
          "package_name": "com.webinfotech.fastmedishop"
        }
      },
      "oauth_client": [
        {
          "client_id": "390469789181-l0nd24ks81se4rnne5dcb3jrsimfjvpe.apps.googleusercontent.com",
          "client_type": 3
        }
      ],
      "api_key": [
        {
          "current_key": "AIzaSyCh7ijo6CYUixsFURKwiN4YCI2n1A3Oq14"
        }
      ],
      "services": {
        "appinvite_service": {
          "other_platform_oauth_client": [
            {
              "client_id": "390469789181-l0nd24ks81se4rnne5dcb3jrsimfjvpe.apps.googleusercontent.com",
              "client_type": 3
            }
          ]
        }
      }
    }
  ],
  "configuration_version": "1"
}